999
FreeCAD v2023.131 26244 +5365 (Git)
  0
SECTION
  2
HEADER
  9
$ACADVER
  1
AC1014
  9
$ACADMAINTVER
 70
     9
  9
$DWGCODEPAGE
  3
ANSI_1252
  9
$TEXTSTYLE
  7
STANDARD
  9
$DIMSTYLE
  2
STANDARD
  9
$DIMTXSTY
  7
STANDARD
  9
$CMLSTYLE
  2
STANDARD
  9
$PEXTMAX
 10
50
 20
50
 30
50
  9
$PEXTMIN
 10
0
 20
0
 30
0
  9
$HANDSEED
  5
FFFF
  0
ENDSEC
  0
SECTION
  2
CLASSES
  0
CLASS
  1
ACDBDICTIONARYWDFLT
  2
AcDbDictionaryWithDefault
  3
ObjectDBX Classes
 90
        0
280
     0
281
     0
  0
CLASS
  1
XRECORD
  2
AcDbXrecord
  3
ObjectDBX Classes
 90
        0
280
     0
281
     0
  0
CLASS
  1
LWPOLYLINE
  2
AcDbPolyline
  3
ObjectDBX Classes
 90
        0
280
     0
281
     1
  0
ENDSEC
  0
SECTION
  2
TABLES
  0
TABLE
  2
VPORT
  5
20
330
0
100
AcDbSymbolTable
 70
     1
  0
VPORT
  5
21
330
20
100
AcDbSymbolTableRecord
100
AcDbViewportTableRecord
  2
*ACTIVE
 70
     0
  0
ENDTAB
  0
TABLE
  2
LTYPE
  5
22
330
0
100
AcDbSymbolTable
 70
     1
  0
LTYPE
  5
23
330
21
100
AcDbSymbolTableRecord
100
AcDbLinetypeTableRecord
  2
BYBLOCK
 70
     0
  3

 72
    65
 73
     0
 40
0.0
  0
LTYPE
  5
24
330
21
100
AcDbSymbolTableRecord
100
AcDbLinetypeTableRecord
  2
BYLAYER
 70
     0
  3

 72
    65
 73
     0
 40
0.0
  0
LTYPE
  5
25
330
21
100
AcDbSymbolTableRecord
100
AcDbLinetypeTableRecord
  2
CONTINUOUS
 70
     0
  3
Solid line
 72
    65
 73
     0
 40
0.0
  0
ENDTAB
  0
TABLE
  2
LAYER
  5
A5A
330
0
100
AcDbSymbolTable
 70
3
  0
LAYER
  5
A5B
330
A5A
100
AcDbSymbolTableRecord
100
AcDbLayerTableRecord
  2
0
 70
   0
 62
   7
  6
CONTINUOUS
  0
LAYER
  5
A5C
330
A5A
100
AcDbSymbolTableRecord
100
AcDbLayerTableRecord
  2
none
 70
    0
 62
    7
  6
CONTINUOUS
  0
LAYER
  5
A5D
330
A5A
100
AcDbSymbolTableRecord
100
AcDbLayerTableRecord
  2
Shape2DView
 70
    0
 62
    7
  6
CONTINUOUS
  0
ENDTAB
  0
TABLE
  2
STYLE
  5
70
330
0
100
AcDbSymbolTable
 70
     2
  0
STYLE
  5
71
330
70
100
AcDbSymbolTableRecord
100
AcDbTextStyleTableRecord
  2
STANDARD
 70
     0
 40
0.0
 41
1.0
 50
0.0
 71
     0
 42
2.5
  3
arial.ttf
  4

  0
STYLE
  5
72
330
70
100
AcDbSymbolTableRecord
100
AcDbTextStyleTableRecord
  2
ANNOTATIVE
 70
     0
 40
0.0
 41
1.0
 50
0.0
 71
     0
 42
2.5
  3
arial.ttf
  4

  0
ENDTAB
  0
TABLE
  2
VIEW
  5
73
330
0
100
AcDbSymbolTable
 70
     0
  0
ENDTAB
  0
TABLE
  2
UCS
  5
74
330
0
100
AcDbSymbolTable
 70
     0
  0
ENDTAB
  0
TABLE
  2
APPID
  5
75
330
0
100
AcDbSymbolTable
 70
     2
  0
APPID
  5
76
330
75
100
AcDbSymbolTableRecord
100
AcDbRegAppTableRecord
  2
ACAD
 70
     0
  0
APPID
  5
77
330
75
100
AcDbSymbolTableRecord
100
AcDbRegAppTableRecord
  2
ACADANNOTATIVE
 70
     0
  0
ENDTAB
  0
TABLE
  2
DIMSTYLE
  5
78
330
0
100
AcDbSymbolTable
 70
     2
  0
DIMSTYLE
105
79
330
78
100
AcDbSymbolTableRecord
100
AcDbDimStyleTableRecord
  2
STANDARD
 70
     0
  3

  4

  5

  6

  7

 40
0.0
 41
2.5
 42
0.625
 43
3.75
 44
1.25
 45
0.0
 46
0.0
 47
0.0
 48
0.0
140
2.5
141
2.5
142
0.0
143
0.03937007874016
144
1.0
145
0.0
146
1.0
147
0.625
 71
     0
 72
     0
 73
     0
 74
     0
 75
     0
 76
     0
 77
     1
 78
     8
170
     0
171
     3
172
     1
173
     0
174
     0
175
     0
176
     0
177
     0
178
     0
270
     2
271
     2
272
     2
273
     2
274
     3
340
71
275
     0
280
     0
281
     0
282
     0
283
     0
284
     8
285
     0
286
     0
287
     3
288
     0
  0
ENDTAB
  0
TABLE
  2
BLOCK_RECORD
  5
A01
330
0
100
AcDbSymbolTable
  70
5
  0
BLOCK_RECORD
  5
A02
330
A01
100
AcDbSymbolTableRecord
100
AcDbBlockTableRecord
  2
*MODEL_SPACE
  0
BLOCK_RECORD
  5
A03
330
A01
100
AcDbSymbolTableRecord
100
AcDbBlockTableRecord
  2
*PAPER_SPACE
  0
ENDTAB
  0
ENDSEC
  0
SECTION
  2
BLOCKS
  0
BLOCK
  5
A04
330
A02
100
AcDbEntity
  8
0
100
AcDbBlockBegin
  2
*MODEL_SPACE
 70
   0
 10
0
 20
0
 30
0
  3
*MODEL_SPACE
  1
 
  0
ENDBLK
  5
A05
330
A02
100
AcDbEntity
  8
0
100
AcDbBlockEnd
  0
BLOCK
  5
A06
330
A03
100
AcDbEntity
 67
1
  8
0
100
AcDbBlockBegin
  2
*PAPER_SPACE
 70
   0
 10
0
 20
0
 30
0
  3
*PAPER_SPACE
  1
 
  0
ENDBLK
  5
A07
330
A03
100
AcDbEntity
 67
    1
  8
0
100
AcDbBlockEnd
  0
ENDSEC
  0
SECTION
  2
ENTITIES
  0
LINE
  5
A08
330
A02
100
AcDbEntity
  8
Shape2DView
100
AcDbLine
 10
1.17898e-13
 20
-530.225
 30
0
 11
9.86189e-14
 21
-442.595
 31
0
  0
ARC
  5
A09
330
A02
100
AcDbEntity
  8
Shape2DView
100
AcDbCircle
 10
-1.27
 20
-442.595
 30
0
 40
1.27
100
AcDbArc
 50
0
 51
90
  0
LINE
  5
A0A
330
A02
100
AcDbEntity
  8
Shape2DView
100
AcDbLine
 10
1.3536e-13
 20
-609.6
 30
0
 11
1.20691e-13
 21
-542.925
 31
0
  0
LINE
  5
A0B
330
A02
100
AcDbEntity
  8
Shape2DView
100
AcDbLine
 10
-11.43
 20
-542.925
 30
0
 11
0
 21
-542.925
 31
0
  0
ARC
  5
A0C
330
A02
100
AcDbEntity
  8
Shape2DView
100
AcDbCircle
 10
-11.43
 20
-541.655
 30
0
 40
1.27
100
AcDbArc
 50
-180
 51
-90
  0
LINE
  5
A0D
330
A02
100
AcDbEntity
  8
Shape2DView
100
AcDbLine
 10
-12.7
 20
-531.495
 30
0
 11
-12.7
 21
-541.655
 31
0
  0
ARC
  5
A0E
330
A02
100
AcDbEntity
  8
Shape2DView
100
AcDbCircle
 10
-11.43
 20
-531.495
 30
0
 40
1.27
100
AcDbArc
 50
90
 51
180
  0
LINE
  5
A0F
330
A02
100
AcDbEntity
  8
Shape2DView
100
AcDbLine
 10
0
 20
-530.225
 30
0
 11
-11.43
 21
-530.225
 31
0
  0
LINE
  5
A10
330
A02
100
AcDbEntity
  8
Shape2DView
100
AcDbLine
 10
-11.43
 20
-441.325
 30
0
 11
-1.27
 21
-441.325
 31
0
  0
ARC
  5
A11
330
A02
100
AcDbEntity
  8
Shape2DView
100
AcDbCircle
 10
-11.43
 20
-440.055
 30
0
 40
1.27
100
AcDbArc
 50
-180
 51
-90
  0
LINE
  5
A12
330
A02
100
AcDbEntity
  8
Shape2DView
100
AcDbLine
 10
-12.7
 20
-429.895
 30
0
 11
-12.7
 21
-440.055
 31
0
  0
ARC
  5
A13
330
A02
100
AcDbEntity
  8
Shape2DView
100
AcDbCircle
 10
-11.43
 20
-429.895
 30
0
 40
1.27
100
AcDbArc
 50
90
 51
-180
  0
LINE
  5
A14
330
A02
100
AcDbEntity
  8
Shape2DView
100
AcDbLine
 10
-1.27
 20
-428.625
 30
0
 11
-11.43
 21
-428.625
 31
0
  0
ARC
  5
A15
330
A02
100
AcDbEntity
  8
Shape2DView
100
AcDbCircle
 10
-1.27
 20
-427.355
 30
0
 40
1.27
100
AcDbArc
 50
-90
 51
0
  0
LINE
  5
A16
330
A02
100
AcDbEntity
  8
Shape2DView
100
AcDbLine
 10
9.52661e-14
 20
-427.355
 30
0
 11
7.62669e-14
 21
-340.995
 31
0
  0
ARC
  5
A17
330
A02
100
AcDbEntity
  8
Shape2DView
100
AcDbCircle
 10
-1.27
 20
-340.995
 30
0
 40
1.27
100
AcDbArc
 50
0
 51
90
  0
LINE
  5
A18
330
A02
100
AcDbEntity
  8
Shape2DView
100
AcDbLine
 10
-11.43
 20
-339.725
 30
0
 11
-1.27
 21
-339.725
 31
0
  0
ARC
  5
A19
330
A02
100
AcDbEntity
  8
Shape2DView
100
AcDbCircle
 10
-11.43
 20
-338.455
 30
0
 40
1.27
100
AcDbArc
 50
-180
 51
-90
  0
LINE
  5
A1A
330
A02
100
AcDbEntity
  8
Shape2DView
100
AcDbLine
 10
-12.7
 20
-328.295
 30
0
 11
-12.7
 21
-338.455
 31
0
  0
ARC
  5
A1B
330
A02
100
AcDbEntity
  8
Shape2DView
100
AcDbCircle
 10
-11.43
 20
-328.295
 30
0
 40
1.27
100
AcDbArc
 50
90
 51
-180
  0
LINE
  5
A1C
330
A02
100
AcDbEntity
  8
Shape2DView
100
AcDbLine
 10
-1.27
 20
-327.025
 30
0
 11
-11.43
 21
-327.025
 31
0
  0
ARC
  5
A1D
330
A02
100
AcDbEntity
  8
Shape2DView
100
AcDbCircle
 10
-1.27
 20
-325.755
 30
0
 40
1.27
100
AcDbArc
 50
-90
 51
0
  0
LINE
  5
A1E
330
A02
100
AcDbEntity
  8
Shape2DView
100
AcDbLine
 10
7.29141e-14
 20
-325.755
 30
0
 11
5.39149e-14
 21
-239.395
 31
0
  0
ARC
  5
A1F
330
A02
100
AcDbEntity
  8
Shape2DView
100
AcDbCircle
 10
-1.27
 20
-239.395
 30
0
 40
1.27
100
AcDbArc
 50
0
 51
90
  0
LINE
  5
A20
330
A02
100
AcDbEntity
  8
Shape2DView
100
AcDbLine
 10
-11.43
 20
-238.125
 30
0
 11
-1.27
 21
-238.125
 31
0
  0
ARC
  5
A21
330
A02
100
AcDbEntity
  8
Shape2DView
100
AcDbCircle
 10
-11.43
 20
-236.855
 30
0
 40
1.27
100
AcDbArc
 50
-180
 51
-90
  0
LINE
  5
A22
330
A02
100
AcDbEntity
  8
Shape2DView
100
AcDbLine
 10
-12.7
 20
-226.695
 30
0
 11
-12.7
 21
-236.855
 31
0
  0
ARC
  5
A23
330
A02
100
AcDbEntity
  8
Shape2DView
100
AcDbCircle
 10
-11.43
 20
-226.695
 30
0
 40
1.27
100
AcDbArc
 50
90
 51
-180
  0
LINE
  5
A24
330
A02
100
AcDbEntity
  8
Shape2DView
100
AcDbLine
 10
-1.27
 20
-225.425
 30
0
 11
-11.43
 21
-225.425
 31
0
  0
ARC
  5
A25
330
A02
100
AcDbEntity
  8
Shape2DView
100
AcDbCircle
 10
-1.27
 20
-224.155
 30
0
 40
1.27
100
AcDbArc
 50
-90
 51
0
  0
LINE
  5
A26
330
A02
100
AcDbEntity
  8
Shape2DView
100
AcDbLine
 10
5.05621e-14
 20
-224.155
 30
0
 11
3.15629e-14
 21
-137.795
 31
0
  0
ARC
  5
A27
330
A02
100
AcDbEntity
  8
Shape2DView
100
AcDbCircle
 10
-1.27
 20
-137.795
 30
0
 40
1.27
100
AcDbArc
 50
0
 51
90
  0
LINE
  5
A28
330
A02
100
AcDbEntity
  8
Shape2DView
100
AcDbLine
 10
-11.43
 20
-136.525
 30
0
 11
-1.27
 21
-136.525
 31
0
  0
ARC
  5
A29
330
A02
100
AcDbEntity
  8
Shape2DView
100
AcDbCircle
 10
-11.43
 20
-135.255
 30
0
 40
1.27
100
AcDbArc
 50
-180
 51
-90
  0
LINE
  5
A2A
330
A02
100
AcDbEntity
  8
Shape2DView
100
AcDbLine
 10
-12.7
 20
-125.095
 30
0
 11
-12.7
 21
-135.255
 31
0
  0
ARC
  5
A2B
330
A02
100
AcDbEntity
  8
Shape2DView
100
AcDbCircle
 10
-11.43
 20
-125.095
 30
0
 40
1.27
100
AcDbArc
 50
90
 51
-180
  0
LINE
  5
A2C
330
A02
100
AcDbEntity
  8
Shape2DView
100
AcDbLine
 10
-1.27
 20
-123.825
 30
0
 11
-11.43
 21
-123.825
 31
0
  0
ARC
  5
A2D
330
A02
100
AcDbEntity
  8
Shape2DView
100
AcDbCircle
 10
-1.27
 20
-122.555
 30
0
 40
1.27
100
AcDbArc
 50
-90
 51
0
  0
LINE
  5
A2E
330
A02
100
AcDbEntity
  8
Shape2DView
100
AcDbLine
 10
2.82101e-14
 20
-122.555
 30
0
 11
-2.57141e-14
 21
122.555
 31
0
  0
ARC
  5
A2F
330
A02
100
AcDbEntity
  8
Shape2DView
100
AcDbCircle
 10
-1.27
 20
122.555
 30
0
 40
1.27
100
AcDbArc
 50
0
 51
90
  0
LINE
  5
A30
330
A02
100
AcDbEntity
  8
Shape2DView
100
AcDbLine
 10
-1.27
 20
123.825
 30
0
 11
-11.43
 21
123.825
 31
0
  0
ARC
  5
A31
330
A02
100
AcDbEntity
  8
Shape2DView
100
AcDbCircle
 10
-11.43
 20
125.095
 30
0
 40
1.27
100
AcDbArc
 50
180
 51
-90
  0
LINE
  5
A32
330
A02
100
AcDbEntity
  8
Shape2DView
100
AcDbLine
 10
-12.7
 20
125.095
 30
0
 11
-12.7
 21
135.255
 31
0
  0
ARC
  5
A33
330
A02
100
AcDbEntity
  8
Shape2DView
100
AcDbCircle
 10
-11.43
 20
135.255
 30
0
 40
1.27
100
AcDbArc
 50
90
 51
180
  0
LINE
  5
A34
330
A02
100
AcDbEntity
  8
Shape2DView
100
AcDbLine
 10
-11.43
 20
136.525
 30
0
 11
-1.27
 21
136.525
 31
0
  0
ARC
  5
A35
330
A02
100
AcDbEntity
  8
Shape2DView
100
AcDbCircle
 10
-1.27
 20
137.795
 30
0
 40
1.27
100
AcDbArc
 50
-90
 51
0
  0
LINE
  5
A36
330
A02
100
AcDbEntity
  8
Shape2DView
100
AcDbLine
 10
-2.90669e-14
 20
137.795
 30
0
 11
-4.80661e-14
 21
224.155
 31
0
  0
ARC
  5
A37
330
A02
100
AcDbEntity
  8
Shape2DView
100
AcDbCircle
 10
-1.27
 20
224.155
 30
0
 40
1.27
100
AcDbArc
 50
0
 51
90
  0
LINE
  5
A38
330
A02
100
AcDbEntity
  8
Shape2DView
100
AcDbLine
 10
-1.27
 20
225.425
 30
0
 11
-11.43
 21
225.425
 31
0
  0
ARC
  5
A39
330
A02
100
AcDbEntity
  8
Shape2DView
100
AcDbCircle
 10
-11.43
 20
226.695
 30
0
 40
1.27
100
AcDbArc
 50
180
 51
-90
  0
LINE
  5
A3A
330
A02
100
AcDbEntity
  8
Shape2DView
100
AcDbLine
 10
-12.7
 20
226.695
 30
0
 11
-12.7
 21
236.855
 31
0
  0
ARC
  5
A3B
330
A02
100
AcDbEntity
  8
Shape2DView
100
AcDbCircle
 10
-11.43
 20
236.855
 30
0
 40
1.27
100
AcDbArc
 50
90
 51
180
  0
LINE
  5
A3C
330
A02
100
AcDbEntity
  8
Shape2DView
100
AcDbLine
 10
-11.43
 20
238.125
 30
0
 11
-1.27
 21
238.125
 31
0
  0
ARC
  5
A3D
330
A02
100
AcDbEntity
  8
Shape2DView
100
AcDbCircle
 10
-1.27
 20
239.395
 30
0
 40
1.27
100
AcDbArc
 50
-90
 51
0
  0
LINE
  5
A3E
330
A02
100
AcDbEntity
  8
Shape2DView
100
AcDbLine
 10
-5.14189e-14
 20
239.395
 30
0
 11
-7.04181e-14
 21
325.755
 31
0
  0
ARC
  5
A3F
330
A02
100
AcDbEntity
  8
Shape2DView
100
AcDbCircle
 10
-1.27
 20
325.755
 30
0
 40
1.27
100
AcDbArc
 50
0
 51
90
  0
LINE
  5
A40
330
A02
100
AcDbEntity
  8
Shape2DView
100
AcDbLine
 10
-1.27
 20
327.025
 30
0
 11
-11.43
 21
327.025
 31
0
  0
ARC
  5
A41
330
A02
100
AcDbEntity
  8
Shape2DView
100
AcDbCircle
 10
-11.43
 20
328.295
 30
0
 40
1.27
100
AcDbArc
 50
180
 51
-90
  0
LINE
  5
A42
330
A02
100
AcDbEntity
  8
Shape2DView
100
AcDbLine
 10
-12.7
 20
328.295
 30
0
 11
-12.7
 21
338.455
 31
0
  0
ARC
  5
A43
330
A02
100
AcDbEntity
  8
Shape2DView
100
AcDbCircle
 10
-11.43
 20
338.455
 30
0
 40
1.27
100
AcDbArc
 50
90
 51
180
  0
LINE
  5
A44
330
A02
100
AcDbEntity
  8
Shape2DView
100
AcDbLine
 10
-11.43
 20
339.725
 30
0
 11
-1.27
 21
339.725
 31
0
  0
ARC
  5
A45
330
A02
100
AcDbEntity
  8
Shape2DView
100
AcDbCircle
 10
-1.27
 20
340.995
 30
0
 40
1.27
100
AcDbArc
 50
-90
 51
0
  0
LINE
  5
A46
330
A02
100
AcDbEntity
  8
Shape2DView
100
AcDbLine
 10
-7.37709e-14
 20
340.995
 30
0
 11
-9.27701e-14
 21
427.355
 31
0
  0
ARC
  5
A47
330
A02
100
AcDbEntity
  8
Shape2DView
100
AcDbCircle
 10
-1.27
 20
427.355
 30
0
 40
1.27
100
AcDbArc
 50
0
 51
90
  0
LINE
  5
A48
330
A02
100
AcDbEntity
  8
Shape2DView
100
AcDbLine
 10
-1.27
 20
428.625
 30
0
 11
-11.43
 21
428.625
 31
0
  0
ARC
  5
A49
330
A02
100
AcDbEntity
  8
Shape2DView
100
AcDbCircle
 10
-11.43
 20
429.895
 30
0
 40
1.27
100
AcDbArc
 50
180
 51
-90
  0
LINE
  5
A4A
330
A02
100
AcDbEntity
  8
Shape2DView
100
AcDbLine
 10
-12.7
 20
429.895
 30
0
 11
-12.7
 21
440.055
 31
0
  0
ARC
  5
A4B
330
A02
100
AcDbEntity
  8
Shape2DView
100
AcDbCircle
 10
-11.43
 20
440.055
 30
0
 40
1.27
100
AcDbArc
 50
90
 51
180
  0
LINE
  5
A4C
330
A02
100
AcDbEntity
  8
Shape2DView
100
AcDbLine
 10
-11.43
 20
441.325
 30
0
 11
-1.27
 21
441.325
 31
0
  0
ARC
  5
A4D
330
A02
100
AcDbEntity
  8
Shape2DView
100
AcDbCircle
 10
-1.27
 20
442.595
 30
0
 40
1.27
100
AcDbArc
 50
-90
 51
0
  0
LINE
  5
A4E
330
A02
100
AcDbEntity
  8
Shape2DView
100
AcDbLine
 10
-9.61229e-14
 20
442.595
 30
0
 11
-1.15122e-13
 21
528.955
 31
0
  0
ARC
  5
A4F
330
A02
100
AcDbEntity
  8
Shape2DView
100
AcDbCircle
 10
-1.27
 20
528.955
 30
0
 40
1.27
100
AcDbArc
 50
0
 51
90
  0
LINE
  5
A50
330
A02
100
AcDbEntity
  8
Shape2DView
100
AcDbLine
 10
-1.27
 20
530.225
 30
0
 11
-11.43
 21
530.225
 31
0
  0
ARC
  5
A51
330
A02
100
AcDbEntity
  8
Shape2DView
100
AcDbCircle
 10
-11.43
 20
531.495
 30
0
 40
1.27
100
AcDbArc
 50
180
 51
-90
  0
LINE
  5
A52
330
A02
100
AcDbEntity
  8
Shape2DView
100
AcDbLine
 10
-12.7
 20
531.495
 30
0
 11
-12.7
 21
541.655
 31
0
  0
ARC
  5
A53
330
A02
100
AcDbEntity
  8
Shape2DView
100
AcDbCircle
 10
-11.43
 20
541.655
 30
0
 40
1.27
100
AcDbArc
 50
90
 51
180
  0
LINE
  5
A54
330
A02
100
AcDbEntity
  8
Shape2DView
100
AcDbLine
 10
-11.43
 20
542.925
 30
0
 11
-1.27
 21
542.925
 31
0
  0
ARC
  5
A55
330
A02
100
AcDbEntity
  8
Shape2DView
100
AcDbCircle
 10
-1.27
 20
544.195
 30
0
 40
1.27
100
AcDbArc
 50
-90
 51
0
  0
LINE
  5
A56
330
A02
100
AcDbEntity
  8
Shape2DView
100
AcDbLine
 10
-1.18475e-13
 20
544.195
 30
0
 11
-1.32864e-13
 21
609.6
 31
0
  0
LINE
  5
A57
330
A02
100
AcDbEntity
  8
Shape2DView
100
AcDbLine
 10
-50.8
 20
609.6
 30
0
 11
-1.35003e-13
 21
609.6
 31
0
  0
LINE
  5
A58
330
A02
100
AcDbEntity
  8
Shape2DView
100
AcDbLine
 10
-50.8
 20
-609.6
 30
0
 11
-50.8
 21
609.6
 31
0
  0
LINE
  5
A59
330
A02
100
AcDbEntity
  8
Shape2DView
100
AcDbLine
 10
-50.8
 20
-609.6
 30
0
 11
1.35003e-13
 21
-609.6
 31
0
  0
ENDSEC
  0
SECTION
  2
OBJECTS
  0
DICTIONARY
  5
F000
330
0
100
AcDbDictionary
  3
ACAD_GROUP
350
F001
  0
DICTIONARY
  5
F001
330
F000
100
AcDbDictionary
  0
ENDSEC
  0
EOF